{
    "type": "object",
    "additionalProperties": false,
    "required": [
        "id",
        "producerId",
        "name",
        "title",
        "status",
        "date",
        "email",
        "file",
        "image",
        "public",
        "url",
        "ip",
        "description",
        "width",
        "height"
    ],
    "properties": {
        "id": {
            "type": "object",
            "additionalProperties": false,
            "required": [
                "value"
            ],
            "properties": {
                "value": {
                    "type": "string"
                }
            }
        },
        "producerId": {
            "type": "object",
            "additionalProperties": false,
            "required": [
                "value"
            ],
            "properties": {
                "value": {
                    "type": "string"
                }
            }
        },
        "name": {
            "type": "string"
        },
        "title": {
            "type": "object",
            "additionalProperties": false,
            "required": [
                "values"
            ],
            "properties": {
                "values": {
                    "oneOf": [
                        {
                            "type": "array"
                        },
                        {
                            "type": "object"
                        }
                    ]
                }
            }
        },
        "status": {
            "type": "object",
            "additionalProperties": false,
            "required": [
                "value"
            ],
            "properties": {
                "value": {
                    "type": "string"
                }
            }
        },
        "date": {
            "type": "object",
            "additionalProperties": false,
            "required": [
                "value"
            ],
            "properties": {
                "value": {
                    "type": "string"
                }
            }
        },
        "email": {
            "type": "object",
            "additionalProperties": false,
            "required": [
                "value"
            ],
            "properties": {
                "value": {
                    "type": "string"
                }
            }
        },
        "file": {
            "oneOf": [
                {
                    "type": "null"
                },
                {
                    "type": "object",
                    "additionalProperties": false,
                    "required": [
                        "mimeType",
                        "path",
                        "restrictions",
                        "name",
                        "directory"
                    ],
                    "properties": {
                        "mimeType": {
                            "type": "string"
                        },
                        "path": {
                            "type": [
                                "string",
                                "null"
                            ]
                        },
                        "restrictions": {
                            "type": "object",
                            "additionalProperties": false,
                            "required": [
                                "minSize",
                                "maxSize",
                                "imageWidth",
                                "imageHeight",
                                "minImageWidth",
                                "maxImageWidth",
                                "minImageHeight",
                                "maxImageHeight",
                                "types",
                                "mustBeImage"
                            ],
                            "properties": {
                                "minSize": {
                                    "type": [
                                        "integer",
                                        "null"
                                    ]
                                },
                                "maxSize": {
                                    "type": [
                                        "integer",
                                        "null"
                                    ]
                                },
                                "imageWidth": {
                                    "type": [
                                        "integer",
                                        "null"
                                    ]
                                },
                                "imageHeight": {
                                    "type": [
                                        "integer",
                                        "null"
                                    ]
                                },
                                "minImageWidth": {
                                    "type": [
                                        "integer",
                                        "null"
                                    ]
                                },
                                "maxImageWidth": {
                                    "type": [
                                        "integer",
                                        "null"
                                    ]
                                },
                                "minImageHeight": {
                                    "type": [
                                        "integer",
                                        "null"
                                    ]
                                },
                                "maxImageHeight": {
                                    "type": [
                                        "integer",
                                        "null"
                                    ]
                                },
                                "types": {
                                    "oneOf": [
                                        {
                                            "type": "array"
                                        },
                                        {
                                            "type": "object"
                                        }
                                    ]
                                },
                                "mustBeImage": {
                                    "type": "boolean"
                                }
                            }
                        },
                        "name": {
                            "type": "string"
                        },
                        "directory": {
                            "type": "string"
                        }
                    }
                }
            ]
        },
        "image": {
            "oneOf": [
                {
                    "type": "null"
                },
                {
                    "type": "object",
                    "additionalProperties": false,
                    "required": [
                        "mimeType",
                        "path",
                        "restrictions",
                        "name",
                        "directory"
                    ],
                    "properties": {
                        "mimeType": {
                            "type": "string"
                        },
                        "path": {
                            "type": [
                                "string",
                                "null"
                            ]
                        },
                        "restrictions": {
                            "type": "object",
                            "additionalProperties": false,
                            "required": [
                                "minSize",
                                "maxSize",
                                "imageWidth",
                                "imageHeight",
                                "minImageWidth",
                                "maxImageWidth",
                                "minImageHeight",
                                "maxImageHeight",
                                "types",
                                "mustBeImage"
                            ],
                            "properties": {
                                "minSize": {
                                    "type": [
                                        "integer",
                                        "null"
                                    ]
                                },
                                "maxSize": {
                                    "type": [
                                        "integer",
                                        "null"
                                    ]
                                },
                                "imageWidth": {
                                    "type": [
                                        "integer",
                                        "null"
                                    ]
                                },
                                "imageHeight": {
                                    "type": [
                                        "integer",
                                        "null"
                                    ]
                                },
                                "minImageWidth": {
                                    "type": [
                                        "integer",
                                        "null"
                                    ]
                                },
                                "maxImageWidth": {
                                    "type": [
                                        "integer",
                                        "null"
                                    ]
                                },
                                "minImageHeight": {
                                    "type": [
                                        "integer",
                                        "null"
                                    ]
                                },
                                "maxImageHeight": {
                                    "type": [
                                        "integer",
                                        "null"
                                    ]
                                },
                                "types": {
                                    "oneOf": [
                                        {
                                            "type": "array"
                                        },
                                        {
                                            "type": "object"
                                        }
                                    ]
                                },
                                "mustBeImage": {
                                    "type": "boolean"
                                }
                            }
                        },
                        "name": {
                            "type": "string"
                        },
                        "directory": {
                            "type": "string"
                        }
                    }
                }
            ]
        },
        "public": {
            "type": "boolean"
        },
        "url": {
            "oneOf": [
                {
                    "type": "null"
                },
                {
                    "type": "object",
                    "additionalProperties": false,
                    "required": [
                        "value"
                    ],
                    "properties": {
                        "value": {
                            "type": "string"
                        }
                    }
                }
            ]
        },
        "ip": {
            "oneOf": [
                {
                    "type": "null"
                },
                {
                    "type": "object",
                    "additionalProperties": false,
                    "required": [
                        "value"
                    ],
                    "properties": {
                        "value": {
                            "type": "string"
                        }
                    }
                }
            ]
        },
        "description": {
            "oneOf": [
                {
                    "type": "null"
                },
                {
                    "type": "object",
                    "additionalProperties": false,
                    "required": [
                        "values"
                    ],
                    "properties": {
                        "values": {
                            "oneOf": [
                                {
                                    "type": "array"
                                },
                                {
                                    "type": "object"
                                }
                            ]
                        }
                    }
                }
            ]
        },
        "width": {
            "type": "object",
            "additionalProperties": false,
            "required": [
                "value"
            ],
            "properties": {
                "value": {
                    "type": "integer"
                }
            }
        },
        "height": {
            "type": "object",
            "additionalProperties": false,
            "required": [
                "value"
            ],
            "properties": {
                "value": {
                    "type": "integer"
                }
            }
        }
    }
}